<?xml version="1.0" encoding="utf-8"?>
<!-- Generator: Adobe Illustrator 21.0.0, SVG Export Plug-In . SVG Version: 6.00 Build 0)  -->
<svg version="1.1" id="Capa_1" xmlns="http://www.w3.org/2000/svg" xmlns:xlink="http://www.w3.org/1999/xlink" x="0px" y="0px"
	 viewBox="0 0 390.3 390.3" style="enable-background:new 0 0 390.3 390.3;" xml:space="preserve">
<style type="text/css">
	.st0{fill:#454545;}
</style>
<g>
	<g>
		<g>
			<path class="st0" d="M359.9,317c-39.2-17.7-40.7-93.6-40.7-95.5v-50.9c0-49-30-91.2-72.5-109.1c-0.1-25.2-20.6-45.7-45.8-45.7
				c-25.2,0-45.7,20.5-45.8,45.7c-42.6,17.9-72.5,60.1-72.5,109.1v50.9c0,1.9-1.5,77.8-40.7,95.5c-4.5,2-6.9,6.9-5.9,11.7
				c1,4.8,5.3,8.2,10.2,8.2h99.3c2,11.2,7.3,21.6,15.4,30c10.8,11.2,25,17.4,40,17.4c15.1,0,29.3-6.2,40-17.4
				c8.1-8.4,13.4-18.9,15.4-30h99.3c4.9,0,9.1-3.4,10.2-8.2C366.8,323.8,364.3,319,359.9,317z M308.3,280.6
				c4.1,12.5,9.9,25,18.2,35.4H75.2c8.3-10.4,14.1-23,18.2-35.4H308.3z M200.9,36.5c11.4,0,21.1,7.7,24.1,18.1
				c-7.8-1.6-15.8-2.5-24.1-2.5c-8.2,0-16.3,0.8-24.1,2.5C179.8,44.2,189.4,36.5,200.9,36.5z M103.3,221.5v-51
				c0-53.8,43.8-97.6,97.6-97.6s97.6,43.8,97.6,97.6v51.1c0,1.6,0.3,18,4.4,38.2H98.9C103,239.6,103.3,223.1,103.3,221.5z
				 M200.9,363.5c-15.9,0-29.7-11.4-34.1-26.6H235C230.6,352,216.7,363.5,200.9,363.5z"/>
			<path class="st0" d="M200.9,87.5c-44.7,0-81.1,36.4-81.1,81.1c0,5.7,4.7,10.4,10.4,10.4c5.7,0,10.4-4.7,10.4-10.4
				c0-33.2,27.1-60.3,60.3-60.3c5.7,0,10.4-4.7,10.4-10.4C211.2,92.2,206.6,87.5,200.9,87.5z"/>
		</g>
	</g>
</g>
</svg>
