<?xml version="1.0" encoding="utf-8"?>
<!-- Generator: Adobe Illustrator 21.0.0, SVG Export Plug-In . SVG Version: 6.00 Build 0)  -->
<svg version="1.1" id="Layer_1" xmlns="http://www.w3.org/2000/svg" xmlns:xlink="http://www.w3.org/1999/xlink" x="0px" y="0px"
	 viewBox="0 0 384 384" style="enable-background:new 0 0 384 384;" xml:space="preserve">
<style type="text/css">
	.st0{fill:#810F30;}
	.st1{fill:#383838;}
</style>
<rect x="152.5" y="176.4" transform="matrix(0.7071 -0.7071 0.7071 0.7071 -76.2627 184.2182)" class="st0" width="63.5" height="15.6"/>
<rect x="176.4" y="230.4" transform="matrix(0.7071 -0.7071 0.7071 0.7071 -131.3844 207.0226)" class="st0" width="15.6" height="63.4"/>
<path class="st0" d="M145.3,192c-17.2,0-31.2,14-31.2,31.2c0,17.2,14,31.2,31.2,31.2s31.2-14,31.2-31.2c0,0,0,0,0,0
	C176.4,206,162.5,192,145.3,192z M145.3,238.7c-8.6,0-15.6-7-15.6-15.6c0-8.6,7-15.6,15.6-15.6s15.6,7,15.6,15.6l0,0
	C160.8,231.8,153.9,238.7,145.3,238.7z"/>
<path class="st0" d="M223.2,114.1c-17.2,0-31.2,14-31.2,31.2s14,31.2,31.2,31.2s31.2-14,31.2-31.2l0,0
	C254.3,128.1,240.4,114.1,223.2,114.1z M223.2,160.8c-8.6,0-15.6-7-15.6-15.6c0-8.6,7-15.6,15.6-15.6c8.6,0,15.6,7,15.6,15.6
	C238.7,153.9,231.8,160.8,223.2,160.8C223.2,160.8,223.2,160.8,223.2,160.8z"/>
<path class="st0" d="M223.2,269.9c-17.2,0-31.2,14-31.2,31.2c0,17.2,14,31.2,31.2,31.2s31.2-14,31.2-31.2c0,0,0,0,0,0
	C254.3,283.8,240.4,269.9,223.2,269.9z M223.2,316.6c-8.6,0-15.6-7-15.6-15.6c0-8.6,7-15.6,15.6-15.6s15.6,7,15.6,15.6l0,0
	C238.7,309.7,231.8,316.6,223.2,316.6z"/>
<rect x="90.7" y="51.8" class="st1" width="77.9" height="15.6"/>
<rect x="90.7" y="82.9" class="st1" width="15.6" height="15.6"/>
<rect x="121.9" y="82.9" class="st1" width="15.6" height="15.6"/>
<path class="st1" d="M337.7,69.7L275.4,7.3c-1.5-1.5-3.4-2.3-5.5-2.3H67.4C54.5,5.1,44,15.5,44,28.4v327.2
	c0,12.9,10.5,23.4,23.4,23.4h249.3c12.9,0,23.4-10.5,23.4-23.4V75.2C340,73.1,339.2,71.1,337.7,69.7z M324.4,355.6
	c0,4.3-3.5,7.8-7.8,7.8h0H67.4c-4.3,0-7.8-3.5-7.8-7.8l0,0V28.4c0-4.3,3.5-7.8,7.8-7.8l0,0h199.3l57.7,57.8V355.6z"/>
<path class="st1" d="M285.5,67.4c-4.3,0-7.8-3.5-7.8-7.8V12.8h-15.6v46.7c0,12.9,10.5,23.4,23.4,23.4h15.6V67.4H285.5z"/>
</svg>
