<?xml version="1.0" encoding="utf-8"?>
<!-- Generator: Adobe Illustrator 21.0.0, SVG Export Plug-In . SVG Version: 6.00 Build 0)  -->
<svg version="1.1" id="Capa_1" xmlns="http://www.w3.org/2000/svg" xmlns:xlink="http://www.w3.org/1999/xlink" x="0px" y="0px"
	 viewBox="0 0 463.1 452.5" style="enable-background:new 0 0 463.1 452.5;" xml:space="preserve">
<style type="text/css">
	.st0{fill:#383838;}
	.st1{fill:#810F30;}
</style>
<title>News 01</title>
<path class="st0" d="M-277.7,93.2c6.6,0,12-5.4,12-12s-5.4-12-12-12h-261.6c-6.6,0-12,5.4-12,12s5.4,12,12,12H-277.7z"/>
<path class="st0" d="M-271.3,135.1h-86.3c-6.6,0-12,5.4-12,12s5.4,12,12,12h86.3c6.6,0,12-5.4,12-12S-264.7,135.1-271.3,135.1z"/>
<g>
	<path class="st0" d="M82.4,452.4C37,452.4,0,415.4,0,370V8.2c0-4.5,3.7-8.1,8.1-8.1H390c4.5,0,8.1,3.7,8.1,8.1v326.6
		c0,4.5-3.7,8.1-8.1,8.1s-8.1-3.7-8.1-8.1V16.4H16.3v353.7c0,36.5,29.7,66.1,66.1,66.1h298.4c36.5,0,66.1-29.7,66.1-66.1V46
		c0-4.5,3.7-8.1,8.1-8.1c2.2,0,4.2,0.9,5.8,2.4c1.5,1.5,2.3,3.5,2.3,5.7V370c0,45.4-37,82.4-82.4,82.4H82.4z"/>
	<path class="st0" d="M64.8,86.8c-4.5,0-8.1-3.7-8.1-8.1s3.7-8.1,8.1-8.1H331c4.5,0,8.1,3.7,8.1,8.1s-3.7,8.1-8.1,8.1H64.8z"/>
	<path class="st0" d="M64.8,335.7c-4.5,0-8.1-3.7-8.1-8.1s3.7-8.1,8.1-8.1H331c4.4,0,8,3.7,8,8.1s-3.7,8.1-8.1,8.1H64.8z"/>
	<path class="st0" d="M107,398.3c-4.5,0-8.1-3.7-8.1-8.1s3.7-8.1,8.1-8.1h224c4.5,0,8.1,3.7,8.1,8.1s-3.7,8.1-8.1,8.1H107z"/>
	<path class="st1" d="M60.7,273.7c-4.5,0-8.1-3.7-8.1-8.1V133.5c0-4.5,3.7-8.1,8.1-8.1h132.6c4.5,0,8.1,3.7,8.1,8.1v132.1
		c0,4.5-3.7,8.1-8.1,8.1H60.7z M68.9,257.4h116.3V141.6H68.9V257.4z"/>
	<path class="st0" d="M249.7,153.8c-4.5,0-8.1-3.7-8.1-8.1s3.7-8.1,8.1-8.1h87.8c4.5,0,8.1,3.7,8.1,8.1s-3.7,8.1-8.1,8.1H249.7z"/>
	<path class="st0" d="M249.7,209c-4.5,0-8.1-3.7-8.1-8.1s3.7-8.1,8.1-8.1h87.8c4.5,0,8.1,3.7,8.1,8.1s-3.7,8.1-8.1,8.1H249.7z"/>
	<path class="st0" d="M249.7,267.6c-4.5,0-8.1-3.7-8.1-8.1s3.7-8.1,8.1-8.1h87.8c4.5,0,8.1,3.7,8.1,8.1s-3.7,8.1-8.1,8.1H249.7z"/>
</g>
</svg>
