<?xml version="1.0" encoding="utf-8"?>
<!-- Generator: Adobe Illustrator 21.0.0, SVG Export Plug-In . SVG Version: 6.00 Build 0)  -->
<svg version="1.1" id="Layer_1" xmlns="http://www.w3.org/2000/svg" xmlns:xlink="http://www.w3.org/1999/xlink" x="0px" y="0px"
	 viewBox="0 0 552 502" style="enable-background:new 0 0 552 502;" xml:space="preserve">
<style type="text/css">
	.st0{clip-path:url(#SVGID_2_);}
</style>
<g>
	<g>
		<defs>
			<rect id="SVGID_1_" x="44.9" y="30.7" width="453.1" height="448.5"/>
		</defs>
		<clipPath id="SVGID_2_">
			<use xlink:href="#SVGID_1_"  style="overflow:visible;"/>
		</clipPath>
		<path class="st0" d="M49.5,255.1C49.5,378.7,150,479.6,274,479.6c124,0,224.4-100.8,224.4-224.4c0-123.6-100.8-224.4-224.4-224.4
			C150.3,30.7,49.5,131.5,49.5,255.1L49.5,255.1z M466.7,255.1c0,106.2-86.5,192.7-192.8,192.7c-106.2,0-192.7-86.5-192.7-192.7
			S167.7,62.3,274,62.3C380.2,62.3,466.7,148.9,466.7,255.1L466.7,255.1z M466.7,255.1"/>
	</g>
	<path d="M161.9,203.4c-3.1,3.1-4.6,6.9-4.6,11.2c0,3.9,1.5,8.1,4.6,11.2l102,102c3.1,3.1,6.9,4.6,11.2,4.6c4.2,0,8.1-1.5,11.2-4.6
		l102-102c6.2-6.2,6.2-16.2,0-22.4c-6.2-6.2-16.2-6.2-22.4,0l-90.8,90.8l-90.8-90.8C178.2,197.2,168.1,197.2,161.9,203.4
		L161.9,203.4z M161.9,203.4"/>
</g>
</svg>
