<?xml version="1.0" encoding="utf-8"?>
<!-- Generator: Adobe Illustrator 21.0.0, SVG Export Plug-In . SVG Version: 6.00 Build 0)  -->
<svg version="1.1" id="Layer_1" xmlns="http://www.w3.org/2000/svg" xmlns:xlink="http://www.w3.org/1999/xlink" x="0px" y="0px"
	 viewBox="0 0 384 384" style="enable-background:new 0 0 384 384;" xml:space="preserve">
<style type="text/css">
	.st0{fill:#810F30;}
	.st1{fill:#383838;}
</style>
<path class="st0" d="M371.5,280c-0.8-2.4-2.8-4.1-5.3-4.5l-50.6-7.1l-22.9-44.2c-1.9-3.2-6.1-4.2-9.3-2.3c-0.9,0.6-1.7,1.3-2.3,2.3
	l-22.6,44.1l-50.6,7.2c-3.6,0.5-6.1,3.7-5.6,7.3c0.2,1.5,0.9,2.9,2,3.9l36.5,34.3l-8.6,48.3c-0.4,2.4,0.6,4.9,2.5,6.3
	c2,1.5,4.6,1.7,6.8,0.6l45.3-22.9l45.3,22.9c0.9,0.5,1.9,0.7,2.9,0.7c3.6,0,6.6-3,6.5-6.7c0-0.3,0-0.7-0.1-1l-8.6-48.3l36.5-34.3
	c1.8-1.7,2.5-4.3,1.7-6.7L371.5,280z M321.8,313.9c-1.6,1.5-2.3,3.7-2,5.9l6.9,39l-36.6-18.6c-1.8-0.9-4-0.9-5.9,0l-36.6,18.6
	l6.9-39c0.4-2.2-0.3-4.4-2-5.9l-29.2-27.4l40.7-5.7c2.1-0.3,3.9-1.6,4.9-3.5l18.3-35.8l18.3,35.8c1,1.9,2.8,3.2,4.9,3.5l40.7,5.7
	L321.8,313.9z"/>
<path class="st1" d="M306.4,85.1H189.2c-3.6,0-6.5,2.9-6.5,6.5s2.9,6.5,6.5,6.5h117.2c3.6,0,6.5-2.9,6.5-6.5S310,85.1,306.4,85.1z"
	/>
<path class="st1" d="M306.4,176.3H189.2c-3.6,0-6.5,2.9-6.5,6.5c0,3.6,2.9,6.5,6.5,6.5h117.2c3.6,0,6.5-2.9,6.5-6.5
	C312.9,179.2,310,176.3,306.4,176.3z"/>
<path class="st1" d="M147.4,54.1c-2.7-2.3-6.8-2-9.2,0.7c0,0,0,0,0,0l-40.7,47.4L72.6,83.6c-2.9-2.2-7-1.7-9.3,1.1
	c-2.2,2.9-1.7,7,1.1,9.3l0,0l30.3,22.3c1.1,0.9,2.5,1.3,3.9,1.3c1.9,0,3.7-0.8,5-2.3l44.7-52.1c2.3-2.7,2-6.7-0.7-9.1c0,0,0,0-0.1,0
	L147.4,54.1z"/>
<path class="st1" d="M147.4,145.3c-2.7-2.3-6.8-2-9.2,0.7c0,0,0,0,0,0l-40.7,47.4l-24.8-18.7c-2.9-2.2-7-1.7-9.3,1.1
	c-2.2,2.9-1.7,7,1.1,9.3l0,0l30.3,22.3c1.1,0.8,2.5,1.3,3.9,1.3c1.9,0,3.7-0.8,5-2.3l44.7-52.1C150.6,151.7,150.1,147.6,147.4,145.3
	z"/>
<path class="st1" d="M138.2,243.6l-40.7,47.4l-24.9-18.6c-2.9-2.2-7-1.7-9.3,1.1c-2.2,2.9-1.7,7,1.1,9.3l30.3,22.3
	c1.1,0.8,2.5,1.3,3.9,1.3c1.9,0,3.7-0.8,5-2.3l44.7-52.1c1.7-3.2,0.5-7.1-2.6-8.8c-2.3-1.3-5.2-1-7.2,0.7L138.2,243.6z"/>
<path class="st1" d="M189.2,345.5H92.7c-36.6,0-66.2-29.7-66.2-66.2v-193C26.5,49.7,56.1,20,92.7,20h193c36.6,0,66.2,29.7,66.2,66.2
	v155.6c0,3.6,2.9,6.5,6.5,6.5c3.6,0,6.5-2.9,6.5-6.5c0,0,0,0,0,0V86.2c0-43.8-35.5-79.2-79.3-79.3h-193C48.9,7,13.4,42.5,13.4,86.2
	v193c0,43.8,35.5,79.2,79.3,79.3h96.5c3.6,0,6.5-2.9,6.5-6.5C195.7,348.4,192.8,345.5,189.2,345.5z"/>
</svg>
