<?xml version="1.0" encoding="utf-8"?>
<!-- Generator: Adobe Illustrator 21.0.0, SVG Export Plug-In . SVG Version: 6.00 Build 0)  -->
<svg version="1.1" id="Layer_1" xmlns="http://www.w3.org/2000/svg" xmlns:xlink="http://www.w3.org/1999/xlink" x="0px" y="0px"
	 viewBox="0 0 384 384" style="enable-background:new 0 0 384 384;" xml:space="preserve">
<style type="text/css">
	.st0{fill:#810F30;}
	.st1{fill:#383838;}
</style>
<path class="st0" d="M49.6,192c0,4.4-3.6,8-8,8H40c-4.4,0-8-3.6-8-8s3.6-8,8-8h1.6C46,184,49.6,187.6,49.6,192z M48,152h-1.6
	c-4.4,0-8,3.6-8,8s3.6,8,8,8H48c4.4,0,8-3.6,8-8S52.4,152,48,152z M73.6,184H72c-4.4,0-8,3.6-8,8s3.6,8,8,8h1.6c4.4,0,8-3.6,8-8
	S78,184,73.6,184z M18,327.6C6.4,314.5,0,297.5,0,280V168c0-30.9,25.1-56,56-56V72c0-13.3,10.7-24,24-24h32c13.3,0,24,10.7,24,24v40
	h50.7c10.6,0,20.8,4.2,28.3,11.7l30.6,30.6l0,0l69.7,69.7H368c8.8,0,16,7.2,16,16c0,3.6-1.2,7.1-3.4,9.9l-59,75.1
	c-2.7,3.5-7.7,4.3-11.2,1.6c-3.5-2.7-4.3-7.7-1.6-11.2c0.1-0.1,0.1-0.2,0.2-0.3l59-75.1H16v40c0,13.6,5,26.8,14,37
	c2.9,3.3,2.6,8.4-0.7,11.3C26,331.2,20.9,330.9,18,327.6L18,327.6z M72,112h48V72c0-4.4-3.6-8-8-8H80c-4.4,0-8,3.6-8,8V112z M16,224
	h276.7l-24-24H104c-4.4,0-8-3.6-8-8s3.6-8,8-8h148.7l-16-16H80c-4.4,0-8-3.6-8-8s3.6-8,8-8h140.7l-17-17c-4.5-4.5-10.6-7-17-7H56
	c-22.1,0-40,17.9-40,40V224z"/>
<path class="st1" d="M40,16h32c6.8,0,12.8,4.3,15.1,10.7c1.5,4.2,6,6.4,10.2,4.9c4.2-1.5,6.4-6,4.9-10.2l0,0C97.6,8.6,85.6,0,72,0
	H40c-4.4,0-8,3.6-8,8S35.6,16,40,16z"/>
<path class="st1" d="M8,16h1.6c4.4,0,8-3.6,8-8s-3.6-8-8-8H8C3.6,0,0,3.6,0,8S3.6,16,8,16z"/>
<path class="st1" d="M64,296c-4.4,0-8,3.6-8,8s3.6,8,8,8h64c4.4,0,8-3.6,8-8s-3.6-8-8-8H64z"/>
<path class="st1" d="M380.3,344.1c-3.7-2.4-8.7-1.3-11,2.4c-13.8,21.6-42.5,27.9-64.1,14.1c-5.7-3.6-10.5-8.5-14.1-14.1
	c-1.5-2.3-4-3.7-6.7-3.7h-0.4c-2.7,0-5.3,1.4-6.7,3.7c-13.8,21.6-42.5,27.9-64.1,14.1c-5.7-3.6-10.5-8.5-14.1-14.1
	c-1.5-2.3-4-3.7-6.7-3.7h-0.4c-2.7,0-5.3,1.4-6.7,3.7c-13.8,21.6-42.5,27.9-64.1,14.1c-5.7-3.6-10.5-8.5-14.1-14.1
	c-1.5-2.3-4-3.7-6.7-3.7h-0.4c-2.7,0-5.2,1.4-6.7,3.7c-13.8,21.6-42.5,27.9-64.1,14.1c-5.7-3.6-10.5-8.5-14.1-14.1
	c-2.4-3.7-7.3-4.8-11.1-2.4s-4.8,7.3-2.4,11.1c18.6,29,57.1,37.5,86.2,19c4.6-2.9,8.8-6.5,12.5-10.5c23.3,25.4,62.7,27.2,88.2,3.9
	c1.4-1.2,2.7-2.6,3.9-3.9c23.3,25.4,62.7,27.2,88.2,3.9c1.4-1.3,2.7-2.6,3.9-3.9c23.3,25.4,62.7,27.2,88.2,3.9
	c4-3.7,7.5-7.9,10.5-12.5C385.1,351.5,384,346.6,380.3,344.1L380.3,344.1z"/>
<path class="st1" d="M160,296c-4.4,0-8,3.6-8,8s3.6,8,8,8h1.6c4.4,0,8-3.6,8-8s-3.6-8-8-8H160z"/>
</svg>
