<?xml version="1.0" encoding="utf-8"?>
<!-- Generator: Adobe Illustrator 21.0.0, SVG Export Plug-In . SVG Version: 6.00 Build 0)  -->
<svg version="1.1" id="Layer_1" xmlns="http://www.w3.org/2000/svg" xmlns:xlink="http://www.w3.org/1999/xlink" x="0px" y="0px"
	 viewBox="0 0 384 384" style="enable-background:new 0 0 384 384;" xml:space="preserve">
<style type="text/css">
	.st0{fill:#383938;}
	.st1{fill:#811432;}
</style>
<path class="st0" d="M361.2,239V84.8c0-44.1-35.8-79.8-79.8-79.8H87C42.9,5,7.2,40.8,7.2,84.8v194.4c0,44.1,35.8,79.8,79.8,79.8
	h154.2c36,30.3,89.7,25.7,120-10.3C387.8,317,387.8,270.7,361.2,239z M87,345.9c-36.8,0-66.7-29.9-66.7-66.7V84.8
	C20.3,48,50.2,18.2,87,18.1h194.4c36.8,0,66.7,29.9,66.7,66.7v141.4l-1.6-1.1c-1.4-1.1-2.8-2-4.2-3h-0.4c-3.4-2.2-6.9-4.1-10.6-5.8
	l-1.5-0.7l-4.3-1.7l-2.8-1l-4.1-1.2l-3.5-0.9l-3.9-0.9l-4.6-0.7l-3-0.4c-2.6,0-5.2,0-8.2,0c-39.5,0.1-73.7,27.2-82.8,65.6h-61.1
	c-3.6,0-6.6,2.9-6.6,6.5c0,3.6,2.9,6.6,6.5,6.6c0,0,0,0,0,0h59.3c0,2.2,0,4.3,0,6.6s0,5.3,0,8.2c0,1.1,0,2,0.4,3.1
	c0.4,1.1,0,3,0.7,4.5c0.7,1.5,0.5,2.5,0.8,3.8s0.6,2.4,0.9,3.5c0.3,1.1,0.8,2.8,1.2,4.2l1,2.8c0.6,1.5,1.1,3,1.8,4.5l0.7,1.3
	c1.7,3.8,3.7,7.5,6,11l0,0c1,1.5,2,2.8,3,4.2l1.1,1.6L87,345.9z M295.6,365.5c-17.8,0-34.9-6.6-48.1-18.6c-1.6-1.4-3.1-2.9-4.5-4.4
	l-0.9-1c-1.4-1.6-2.7-3.1-3.9-4.8l-0.9-1.1c-1.1-1.6-2.4-3.4-3.4-5.2l-0.7-1.1c-1.1-1.9-2.1-3.8-2.9-5.7l-0.5-0.9
	c-0.9-2-1.7-4.1-2.4-6.1v-0.7c-0.7-2.1-1.3-4.3-1.8-6.6c0-0.2,0-0.5,0-0.7c-0.5-2.2-0.8-4.4-1.1-6.6c0,0,0-0.6,0-0.9
	c-0.3-2.5-0.4-5.1-0.4-7.6c0-39.8,32.3-72.1,72.1-72.1c2.5,0,5.1,0.1,7.6,0.4h0.8c2.2,0,4.4,0.6,6.6,1.1h0.7
	c2.2,0.5,4.4,1.1,6.6,1.8h0.7c2.1,0.7,4.2,1.6,6.2,2.5l0.9,0.4l5.7,2.9l1.1,0.7c1.7,1.1,3.5,2.2,5.2,3.4l1.1,0.7
	c1.6,1.2,3.3,2.6,4.8,3.9l1,0.9c1.6,1.5,3.1,2.9,4.5,4.6c27,29.2,25.2,74.7-4,101.7C332.3,359.1,314.2,365.9,295.6,365.5z"/>
<path class="st1" d="M334.9,286.9h-32.8v-32.8c0-3.6-2.9-6.6-6.6-6.5c-3.6,0-6.5,2.9-6.5,6.5v32.8h-32.8c-3.6,0-6.6,2.9-6.5,6.6
	c0,3.6,2.9,6.5,6.5,6.5h32.8v32.8c0,3.6,2.9,6.6,6.5,6.6c3.6,0,6.6-2.9,6.6-6.5c0,0,0,0,0,0V300h32.8c3.6,0,6.6-2.9,6.6-6.5
	C341.5,289.8,338.6,286.9,334.9,286.9C335,286.9,334.9,286.9,334.9,286.9z"/>
<path class="st0" d="M151.4,96.8h150.8c3.6,0,6.6-2.9,6.6-6.6c0-3.6-2.9-6.6-6.6-6.6H151.4c-3.6,0-6.6,2.9-6.6,6.6
	C144.8,93.8,147.8,96.8,151.4,96.8z"/>
<path class="st0" d="M151.4,188.5h150.8c3.6,0,6.6-2.9,6.6-6.6c0-3.6-2.9-6.6-6.6-6.6H151.4c-3.6,0-6.6,2.9-6.6,6.6
	C144.8,185.6,147.8,188.5,151.4,188.5z"/>
<path class="st0" d="M89.1,117.3c-14.4,0-26.1-11.7-26.1-26.1C63,76.7,74.7,65,89.1,65s26.1,11.7,26.1,26.1l0,0
	C115.2,105.5,103.5,117.2,89.1,117.3z M89.1,73.1c-9.9,0-17.9,8-17.9,17.9s8,17.9,17.9,17.9s17.9-8,17.9-17.9
	C107,81.1,99,73.1,89.1,73.1z"/>
<path class="st0" d="M89.1,209.9c-14.4,0-26.1-11.7-26.1-26.1c0-14.4,11.7-26.1,26.1-26.1c14.4,0,26.1,11.7,26.1,26.1
	C115.2,198.1,103.5,209.8,89.1,209.9z M89.1,165.7c-9.9,0-17.9,8-17.9,17.9s8,17.9,17.9,17.9s17.9-8,17.9-17.9
	c0-10-8-18.1-17.9-18.1c0,0,0,0,0,0V165.7z"/>
<path class="st0" d="M89.1,302.1C74.7,302.1,63,290.4,63,276c0-14.4,11.7-26.1,26.1-26.1c14.4,0,26.1,11.7,26.1,26.1l0,0
	C115.2,290.4,103.5,302.1,89.1,302.1z M89.1,258c-9.9,0-17.9,8-17.9,17.9s8,17.9,17.9,17.9s17.9-8,17.9-17.9l0,0
	C107,266,99,258.1,89.1,258L89.1,258z"/>
<path class="st1" d="M295.6,378.6c-47.1,0-85.3-38.1-85.4-85.2s38.1-85.3,85.2-85.4s85.3,38.1,85.4,85.2c0,0.1,0,0.1,0,0.2
	C380.7,340.5,342.6,378.6,295.6,378.6z M295.6,221.4c-39.7,0.1-71.9,32.4-71.8,72.1c0.1,39.7,32.4,71.9,72.1,71.8
	c39.6-0.1,71.7-32.2,71.8-71.9C367.7,253.7,335.5,221.4,295.6,221.4C295.7,221.4,295.6,221.4,295.6,221.4z"/>
</svg>
